Pin states initialized
Calibration Functions: 
	(0.00,0.00)
	(0.00,0.00)
	(0.00,0.00)
Switch hit for ckt: 0
Entering calibraiton process.
*** Set current for 0.5A, click node switch ***
Sweeping voltage from 0.39 to 5.00, at step size 0.02
	Current voltage: 0.39....................
		(delay at power off)	.........
	Current voltage: 0.42....................
		(delay at power off)	.........
	Current voltage: 0.44....................
		(delay at power off)	.........
	Current voltage: 0.46....................
		(delay at power off)	.........
	Current voltage: 0.49....................
		(delay at power off)	.........
	Current voltage: 0.51..............
	Stopped sweep at V: 0.51
Voltage set for current = 0.5A: 0.51V
Step 1 of calibration complete
	.....................
*** Set current for 0.75A, click node switch ***
Sweeping voltage from 0.51 to 5.00, at step size 0.02
	Current voltage: 0.51....................
		(delay at power off)	.........
	Current voltage: 0.54....................
		(delay at power off)	.........
	Current voltage: 0.56....................
		(delay at power off)	.........
	Current voltage: 0.59....................
		(delay at power off)	.........
	Current voltage: 0.61....................
		(delay at power off)	.........
	Current voltage: 0.63....................
		(delay at power off)	.........
	Current voltage: 0.66....................
		(delay at power off)	.........
	Current voltage: 0.68....................
		(delay at power off)	.........
	Current voltage: 0.71....................
		(delay at power off)	.........
	Current voltage: 0.73................
	Stopped sweep at V: 0.73
Voltage set for current = 0.75A: 0.51V

Step 2 of calibration complete
Calibration summary for ckt 0
i=0.5A, V = 0.51
i=0.75A, V = 0.73

Calibration Functions: 
	(1.14,-0.08)
	(0.00,0.00)
	(0.00,0.00)
Switch hit for ckt: 1
Entering calibraiton process.
*** Set current for 0.5A, click node switch ***
Sweeping voltage from 0.39 to 5.00, at step size 0.02
	Current voltage: 0.39....................
		(delay at power off)	.........
	Current voltage: 0.42....................
		(delay at power off)	.........
	Current voltage: 0.44....................
		(delay at power off)	.........
	Current voltage: 0.46............
	Stopped sweep at V: 0.46
Voltage set for current = 0.5A: 0.46V
Step 1 of calibration complete
	.....................
*** Set current for 0.75A, click node switch ***
Sweeping voltage from 0.46 to 5.00, at step size 0.02
	Current voltage: 0.46....................
		(delay at power off)	.........
	Current voltage: 0.49....................
		(delay at power off)	.........
	Current voltage: 0.51....................
		(delay at power off)	.........
	Current voltage: 0.54....................
		(delay at power off)	.........
	Current voltage: 0.56....................
		(delay at power off)	.........
	Current voltage: 0.59....................
		(delay at power off)	.........
	Current voltage: 0.61....................
		(delay at power off)	.........
	Current voltage: 0.63....................
		(delay at power off)	.........
	Current voltage: 0.66....................
		(delay at power off)	.........
	Current voltage: 0.68......
	Stopped sweep at V: 0.68
Voltage set for current = 0.75A: 0.46V

Step 2 of calibration complete
Calibration summary for ckt 1
i=0.5A, V = 0.46
i=0.75A, V = 0.68

Calibration Functions: 
	(1.14,-0.08)
	(1.14,-0.03)
	(0.00,0.00)
Switch hit for ckt: 2
Entering calibraiton process.
*** Set current for 0.5A, click node switch ***
Sweeping voltage from 0.39 to 5.00, at step size 0.02
	Current voltage: 0.39....................
		(delay at power off)	.........
	Current voltage: 0.42....................
		(delay at power off)	.........
	Current voltage: 0.44....................
		(delay at power off)	.........
	Current voltage: 0.46............
	Stopped sweep at V: 0.46
Voltage set for current = 0.5A: 0.46V
Step 1 of calibration complete
	.....................
*** Set current for 0.75A, click node switch ***
Sweeping voltage from 0.46 to 5.00, at step size 0.02
	Current voltage: 0.46....................
		(delay at power off)	.........
	Current voltage: 0.49....................
		(delay at power off)	.........
	Current voltage: 0.51....................
		(delay at power off)	.........
	Current voltage: 0.54....................
		(delay at power off)	.........
	Current voltage: 0.56....................
		(delay at power off)	.........
	Current voltage: 0.59....................
		(delay at power off)	.........
	Current voltage: 0.61....................
		(delay at power off)	.........
	Current voltage: 0.63....................
		(delay at power off)	.........
	Current voltage: 0.66...........
	Stopped sweep at V: 0.66
Voltage set for current = 0.75A: 0.46V

Step 2 of calibration complete
Calibration summary for ckt 2
i=0.5A, V = 0.46
i=0.75A, V = 0.66

Calibration Functions: 
	(1.14,-0.08)
	(1.14,-0.03)
	(1.28,-0.09)
Switch hit for ckt: 2
Entering calibraiton process.
*** Set current for 0.5A, click node switch ***
Sweeping voltage from 0.39 to 5.00, at step size 0.02
	Current voltage: 0.39....................
		(delay at power off)	.........
	Current voltage: 0.42....................
		(delay at power off)	.........
	Current voltage: 0.44....................
		(delay at power off)	.........
	Current voltage: 0.46.......
	Stopped sweep at V: 0.46
Voltage set for current = 0.5A: 0.46V
Step 1 of calibration complete
	.....................
*** Set current for 0.75A, click node switch ***
Sweeping voltage from 0.46 to 5.00, at step size 0.02
	Current voltage: 0.46....................
		(delay at power off)	.........
	Current voltage: 0.49....................
		(delay at power off)	.........
	Current voltage: 0.51....................
		(delay at power off)	.........
	Current voltage: 0.54....................
		(delay at power off)	.........
	Current voltage: 0.56....................
		(delay at power off)	.........
	Current voltage: 0.59....................
		(delay at power off)	.........
	Current voltage: 0.61....................
		(delay at power off)	.........
	Current voltage: 0.63....................
		(delay at power off)	.........
	Current voltage: 0.66.........
	Stopped sweep at V: 0.66
Voltage set for current = 0.75A: 0.46V

Step 2 of calibration complete
Calibration summary for ckt 2
i=0.5A, V = 0.46
i=0.75A, V = 0.66

Calibration Functions: 
	(1.14,-0.08)
	(1.14,-0.03)
	(1.28,-0.09)
Switch hit for ckt: 2
Entering calibraiton process.
*** Set current for 0.5A, click node switch ***
Sweeping voltage from 0.39 to 5.00, at step size 0.02
	Current voltage: 0.39....................
		(delay at power off)	.........
	Current voltage: 0.42....................
		(delay at power off)	.........
	Current voltage: 0.44....................
		(delay at power off)	.........
	Current voltage: 0.46.......
	Stopped sweep at V: 0.46
Voltage set for current = 0.5A: 0.46V
Step 1 of calibration complete
	.....................
*** Set current for 0.75A, click node switch ***
Sweeping voltage from 0.46 to 5.00, at step size 0.02
	Current voltage: 0.46....................
		(delay at power off)	.........
	Current voltage: 0.49....................
		(delay at power off)	.........
	Current voltage: 0.51....................
		(delay at power off)	.........
	Current voltage: 0.54....................
		(delay at power off)	.........
	Current voltage: 0.56....................
		(delay at power off)	.........
	Current voltage: 0.59....................
		(delay at power off)	.........
	Current voltage: 0.61....................
		(delay at power off)	.........
	Current voltage: 0.63....................
		(delay at power off)	.........
	Current voltage: 0.66............
	Stopped sweep at V: 0.66
Voltage set for current = 0.75A: 0.46V

Step 2 of calibration complete
Calibration summary for ckt 2
i=0.5A, V = 0.46
i=0.75A, V = 0.66

Calibration Functions: 
	(1.14,-0.08)
	(1.14,-0.03)
	(1.28,-0.09)
